\relax 
\providecommand\hyper@newdestlabel[2]{}
\catcode `:\active 
\catcode `;\active 
\catcode `!\active 
\catcode `?\active 
\providecommand\HyperFirstAtBeginDocument{\AtBeginDocument}
\HyperFirstAtBeginDocument{\ifx\hyper@anchor\@undefined
\global\let\oldcontentsline\contentsline
\gdef\contentsline#1#2#3#4{\oldcontentsline{#1}{#2}{#3}}
\global\let\oldnewlabel\newlabel
\gdef\newlabel#1#2{\newlabelxx{#1}#2}
\gdef\newlabelxx#1#2#3#4#5#6{\oldnewlabel{#1}{{#2}{#3}}}
\AtEndDocument{\ifx\hyper@anchor\@undefined
\let\contentsline\oldcontentsline
\let\newlabel\oldnewlabel
\fi}
\fi}
\global\let\hyper@last\relax 
\gdef\HyperFirstAtBeginDocument#1{#1}
\providecommand\HyField@AuxAddToFields[1]{}
\providecommand\HyField@AuxAddToCoFields[2]{}
\bibstyle{unsrt}
\select@language{french}
\@writefile{toc}{\select@language{french}}
\@writefile{lof}{\select@language{french}}
\@writefile{lot}{\select@language{french}}
\@writefile{toc}{\contentsline {chapter}{\numberline {I}Introduction g\IeC {\'e}n\IeC {\'e}rale}{10}{chapter.1}}
\@writefile{lof}{\addvspace {10\p@ }}
\@writefile{lot}{\addvspace {10\p@ }}
\@writefile{toc}{\contentsline {chapter}{\numberline {II}Contexte du projet}{11}{chapter.2}}
\@writefile{lof}{\addvspace {10\p@ }}
\@writefile{lot}{\addvspace {10\p@ }}
\@writefile{toc}{\contentsline {section}{\numberline {II.1}Pr\IeC {\'e}sentation de l\IeC {\textquoteright }entreprise d\IeC {\textquoteright }accueil}{11}{section.2.1}}
\@writefile{toc}{\contentsline {section}{\numberline {II.2}\IeC {\'E}tude pr\IeC {\'e}alable}{12}{section.2.2}}
\@writefile{toc}{\contentsline {subsection}{\numberline {II.2.1}Analyse de l'existant}{12}{subsection.2.2.1}}
\@writefile{lof}{\contentsline {figure}{\numberline {II.1}{\ignorespaces Processus manuel de traitement des demandes}}{12}{figure.2.1}}
\newlabel{fig:context_manual}{{II.1}{12}{Processus manuel de traitement des demandes}{figure.2.1}{}}
\@writefile{toc}{\contentsline {subsection}{\numberline {II.2.2}Critique de l'existant}{12}{subsection.2.2.2}}
\@writefile{toc}{\contentsline {subsection}{\numberline {II.2.3}Solution propos\IeC {\'e}e}{13}{subsection.2.2.3}}
\newlabel{RF1}{14}
\@writefile{lof}{\contentsline {figure}{\numberline {II.2}{\ignorespaces Processus automatique de traitement des demandes}}{14}{figure.2.2}}
\newlabel{fig:context_auto}{{II.2}{14}{Processus automatique de traitement des demandes}{figure.2.2}{}}
\@writefile{toc}{\contentsline {section}{\numberline {II.3}Planning pr\IeC {\'e}visionnel}{15}{section.2.3}}
\@writefile{lof}{\contentsline {figure}{\numberline {II.3}{\ignorespaces Tableau de Planification}}{15}{figure.2.3}}
\newlabel{fig:planning}{{II.3}{15}{Tableau de Planification}{figure.2.3}{}}
\@writefile{toc}{\contentsline {section}{\numberline {II.4}Sp\IeC {\'e}cification des besoins}{15}{section.2.4}}
\@writefile{toc}{\contentsline {subsection}{\numberline {II.4.1}Sp\IeC {\'e}cification des besoins fonctionnels}{15}{subsection.2.4.1}}
\@writefile{toc}{\contentsline {subsection}{\numberline {II.4.2}Sp\IeC {\'e}cification des besoins non fonctionnels}{16}{subsection.2.4.2}}
\@writefile{toc}{\contentsline {section}{\numberline {II.5}Identification des acteurs}{16}{section.2.5}}
\@writefile{lot}{\contentsline {table}{\numberline {II.1}{\ignorespaces Identification des acteurs}}{16}{table.2.1}}
\newlabel{tab:identifActeurs}{{II.1}{16}{Identification des acteurs}{table.2.1}{}}
\@writefile{toc}{\contentsline {section}{\numberline {II.6}Diagrammes de cas d\IeC {\textquoteright }utilisation}{17}{section.2.6}}
\@writefile{lof}{\contentsline {figure}{\numberline {II.4}{\ignorespaces Diagramme de cas d'utilisation global}}{17}{figure.2.4}}
\newlabel{fig:global_use_case}{{II.4}{17}{Diagramme de cas d'utilisation global}{figure.2.4}{}}
\@writefile{toc}{\contentsline {subsection}{\numberline {II.6.1}Diagramme de gestion des lancements manuels du job de traitement \IeC {\`a} la demande}{18}{subsection.2.6.1}}
\@writefile{lof}{\contentsline {figure}{\numberline {II.5}{\ignorespaces Diagramme du cas d'utilisation d\IeC {\'e}taill\IeC {\'e} de la gestion des lancements manuels du job de traitement \IeC {\`a} la demande}}{18}{figure.2.5}}
\newlabel{fig:manage_job_launch_use_case}{{II.5}{18}{Diagramme du cas d'utilisation détaillé de la gestion des lancements manuels du job de traitement à la demande}{figure.2.5}{}}
\@writefile{lot}{\contentsline {table}{\numberline {II.2}{\ignorespaces Fiche de description du cas d'utilisation Consulter l'historique des ex\IeC {\'e}cutions du job de traitement}}{19}{table.2.2}}
\newlabel{tab:historyLaunchJobUseCaseTable}{{II.2}{19}{Fiche de description du cas d'utilisation Consulter l'historique des exécutions du job de traitement}{table.2.2}{}}
\citation{RUP}
\@writefile{toc}{\contentsline {subsection}{\numberline {II.6.2}Diagramme de supervision des m\IeC {\'e}triques de performance et des logs des jobs de traitement}{20}{subsection.2.6.2}}
\@writefile{lof}{\contentsline {figure}{\numberline {II.6}{\ignorespaces Diagramme du cas d'utilisation d\IeC {\'e}taill\IeC {\'e} de la supervision des m\IeC {\'e}triques de performance et des logs des jobs de traitement}}{20}{figure.2.6}}
\newlabel{fig:monitoring_use_case}{{II.6}{20}{Diagramme du cas d'utilisation détaillé de la supervision des métriques de performance et des logs des jobs de traitement}{figure.2.6}{}}
\@writefile{toc}{\contentsline {section}{\numberline {II.7}Choix du mod\IeC {\`e}le de d\IeC {\'e}veloppement}{20}{section.2.7}}
\@writefile{toc}{\contentsline {chapter}{\numberline {III}Conception du syst\IeC {\`e}me}{22}{chapter.3}}
\@writefile{lof}{\addvspace {10\p@ }}
\@writefile{lot}{\addvspace {10\p@ }}
\@writefile{toc}{\contentsline {section}{\numberline {III.1}Mod\IeC {\'e}lisation statique}{22}{section.3.1}}
\@writefile{toc}{\contentsline {subsection}{\numberline {III.1.1}Diagramme de classes}{22}{subsection.3.1.1}}
\@writefile{lof}{\contentsline {figure}{\numberline {III.1}{\ignorespaces Diagramme de classes}}{23}{figure.3.1}}
\newlabel{fig:class_diagram}{{III.1}{23}{Diagramme de classes}{figure.3.1}{}}
\@writefile{toc}{\contentsline {subsection}{\numberline {III.1.2}Architecture mat\IeC {\'e}rielle de l\IeC {\textquoteright }application}{24}{subsection.3.1.2}}
\@writefile{lof}{\contentsline {figure}{\numberline {III.2}{\ignorespaces Diagramme de d\IeC {\'e}ploiement}}{24}{figure.3.2}}
\newlabel{fig:deployment_diagram}{{III.2}{24}{Diagramme de déploiement}{figure.3.2}{}}
\@writefile{toc}{\contentsline {section}{\numberline {III.2}Mod\IeC {\'e}lisation dynamique}{24}{section.3.2}}
\@writefile{toc}{\contentsline {subsection}{\numberline {III.2.1}Diagrammes de s\IeC {\'e}quences}{24}{subsection.3.2.1}}
\@writefile{toc}{\contentsline {subsection}{\numberline {III.2.2}Diagramme de s\IeC {\'e}quence du processus automatique de traitement des demandes de souscription}{25}{subsection.3.2.2}}
\@writefile{toc}{\contentsline {subsection}{\numberline {III.2.3}Diagramme de s\IeC {\'e}quence de l'\IeC {\'e}tape de traitement des demandes de souscription}{25}{subsection.3.2.3}}
\@writefile{lof}{\contentsline {figure}{\numberline {III.4}{\ignorespaces Diagramme de s\IeC {\'e}quence de l'\IeC {\'e}tape de traitement des demandes de souscription}}{25}{figure.3.4}}
\newlabel{fig:process_seq}{{III.4}{25}{Diagramme de séquence de l'étape de traitement des demandes de souscription}{figure.3.4}{}}
\newlabel{RF2}{26}
\@writefile{lof}{\contentsline {figure}{\numberline {III.3}{\ignorespaces Diagramme de s\IeC {\'e}quence du processus automatique de traitement des demandes de souscription}}{26}{figure.3.3}}
\newlabel{fig:all_sequence}{{III.3}{26}{Diagramme de séquence du processus automatique de traitement des demandes de souscription}{figure.3.3}{}}
\@writefile{toc}{\contentsline {subsection}{\numberline {III.2.4}Diagramme de s\IeC {\'e}quence de l'\IeC {\'e}tape de g\IeC {\'e}n\IeC {\'e}ration des fichiers de configuration pour les demandes de souscription}{27}{subsection.3.2.4}}
\@writefile{lof}{\contentsline {figure}{\numberline {III.5}{\ignorespaces Diagramme de s\IeC {\'e}quence de l'\IeC {\'e}tape de g\IeC {\'e}n\IeC {\'e}ration des fichiers de configuration pour les demandes de souscription}}{27}{figure.3.5}}
\newlabel{fig:writing_sequ}{{III.5}{27}{Diagramme de séquence de l'étape de génération des fichiers de configuration pour les demandes de souscription}{figure.3.5}{}}
\newlabel{RF3}{28}
\@writefile{lof}{\contentsline {figure}{\numberline {III.6}{\ignorespaces Diagramme de s\IeC {\'e}quence de l'\IeC {\'e}tape de d\IeC {\'e}ploiement des fichiers de configuration}}{28}{figure.3.6}}
\newlabel{fig:dep_sequence}{{III.6}{28}{Diagramme de séquence de l'étape de déploiement des fichiers de configuration}{figure.3.6}{}}
\@writefile{toc}{\contentsline {subsection}{\numberline {III.2.5}Diagramme de s\IeC {\'e}quence de l'\IeC {\'e}tape de d\IeC {\'e}ploiement des fichiers de configuration}{29}{subsection.3.2.5}}
\@writefile{toc}{\contentsline {subsection}{\numberline {III.2.6}Diagramme d'activit\IeC {\'e} du processus automatique de traitement}{30}{subsection.3.2.6}}
\@writefile{lof}{\contentsline {figure}{\numberline {III.7}{\ignorespaces Diagramme d'activit\IeC {\'e} du processus automatique de traitement}}{30}{figure.3.7}}
\newlabel{fig:activity}{{III.7}{30}{Diagramme d'activité du processus automatique de traitement}{figure.3.7}{}}
\citation{postman}
\citation{springbatch}
\@writefile{toc}{\contentsline {chapter}{\numberline {IV}R\IeC {\'e}alisation du syst\IeC {\`e}me}{32}{chapter.4}}
\@writefile{lof}{\addvspace {10\p@ }}
\@writefile{lot}{\addvspace {10\p@ }}
\@writefile{toc}{\contentsline {section}{\numberline {IV.1}Environnement de d\IeC {\'e}veloppement}{32}{section.4.1}}
\@writefile{toc}{\contentsline {subsection}{\numberline {IV.1.1}Environnement logiciel}{32}{subsection.4.1.1}}
\@writefile{toc}{\contentsline {subsection}{\numberline {IV.1.2}Technologies utilis\IeC {\'e}es}{32}{subsection.4.1.2}}
\citation{springcloud}
\citation{docker}
\citation{sonar}
\citation{elastic}
\citation{prometheus}
\citation{grafana}
\@writefile{toc}{\contentsline {section}{\numberline {IV.2}R\IeC {\'e}alisation du batch de traitement}{34}{section.4.2}}
\@writefile{lof}{\contentsline {figure}{\numberline {IV.1}{\ignorespaces Impl\IeC {\'e}mentation du projet du batch de traitement automatique des demandes d'adh\IeC {\'e}sion}}{34}{figure.4.1}}
\newlabel{fig:realis}{{IV.1}{34}{Implémentation du projet du batch de traitement automatique des demandes d'adhésion}{figure.4.1}{}}
\@writefile{toc}{\contentsline {section}{\numberline {IV.3}Dockerisation et composants du projet}{35}{section.4.3}}
\@writefile{toc}{\contentsline {subsection}{\numberline {IV.3.1}La dockerisation des composants du projet}{35}{subsection.4.3.1}}
\@writefile{lof}{\contentsline {figure}{\numberline {IV.2}{\ignorespaces Architecture du Docker}}{36}{figure.4.2}}
\newlabel{fig:d_arch}{{IV.2}{36}{Architecture du Docker}{figure.4.2}{}}
\@writefile{toc}{\contentsline {subsection}{\numberline {IV.3.2}Composants du projet}{37}{subsection.4.3.2}}
\@writefile{lof}{\contentsline {figure}{\numberline {IV.3}{\ignorespaces Composants du projet}}{37}{figure.4.3}}
\newlabel{fig:dev_env}{{IV.3}{37}{Composants du projet}{figure.4.3}{}}
\@writefile{toc}{\contentsline {subsection}{\numberline {IV.3.3}Plateforme Spring Cloud Data Flow }{38}{subsection.4.3.3}}
\@writefile{lof}{\contentsline {figure}{\numberline {IV.4}{\ignorespaces Interface de gestion des jobs }}{38}{figure.4.4}}
\newlabel{fig:task_flow}{{IV.4}{38}{Interface de gestion des jobs}{figure.4.4}{}}
\@writefile{lof}{\contentsline {figure}{\numberline {IV.5}{\ignorespaces Interface de planification des lancements des jobs }}{39}{figure.4.5}}
\newlabel{fig:task_sche}{{IV.5}{39}{Interface de planification des lancements des jobs}{figure.4.5}{}}
\@writefile{lof}{\contentsline {figure}{\numberline {IV.6}{\ignorespaces Interface de l'historique des ex\IeC {\'e}cutions des jobs }}{39}{figure.4.6}}
\newlabel{fig:task_hist}{{IV.6}{39}{Interface de l'historique des exécutions des jobs}{figure.4.6}{}}
\@writefile{toc}{\contentsline {subsection}{\numberline {IV.3.4}Plateforme de monitoring de log ELK }{40}{subsection.4.3.4}}
\@writefile{lof}{\contentsline {figure}{\numberline {IV.7}{\ignorespaces Composants du stack ELK }}{40}{figure.4.7}}
\newlabel{fig:elk}{{IV.7}{40}{Composants du stack ELK}{figure.4.7}{}}
\@writefile{lof}{\contentsline {figure}{\numberline {IV.8}{\ignorespaces Visualisation des logs sur Kibana }}{40}{figure.4.8}}
\newlabel{fig:logs}{{IV.8}{40}{Visualisation des logs sur Kibana}{figure.4.8}{}}
\@writefile{toc}{\contentsline {subsection}{\numberline {IV.3.5}Plateforme Sonar Cloud }{41}{subsection.4.3.5}}
\@writefile{lof}{\contentsline {figure}{\numberline {IV.9}{\ignorespaces Int\IeC {\'e}gration de l'\IeC {\'e}tape sonarcloud-check dans le pipeline Gitlab }}{41}{figure.4.9}}
\newlabel{fig:gitlab_sonar}{{IV.9}{41}{Intégration de l'étape sonarcloud-check dans le pipeline Gitlab}{figure.4.9}{}}
\@writefile{lof}{\contentsline {figure}{\numberline {IV.10}{\ignorespaces \hspace  {0.2 cm}R\IeC {\'e}sultats des analyses Sonar-Cloud }}{42}{figure.4.10}}
\newlabel{fig:gitlab_res}{{IV.10}{42}{\hspace {0.2 cm}Résultats des analyses Sonar-Cloud}{figure.4.10}{}}
\@writefile{toc}{\contentsline {subsection}{\numberline {IV.3.6}Pipeline d'int\IeC {\'e}gration continue}{42}{subsection.4.3.6}}
\@writefile{lof}{\contentsline {figure}{\numberline {IV.11}{\ignorespaces \hspace  {0.2 cm}\IeC {\'E}tapes de la pipeline d'int\IeC {\'e}gration continue }}{42}{figure.4.11}}
\newlabel{fig:gbuild}{{IV.11}{42}{\hspace {0.2 cm}Étapes de la pipeline d'intégration continue}{figure.4.11}{}}
\@writefile{lof}{\contentsline {figure}{\numberline {IV.12}{\ignorespaces \hspace  {0.2 cm}Image docker du batch d\IeC {\'e}ploy\IeC {\'e} sur l'artifactory }}{43}{figure.4.12}}
\newlabel{fig:regis}{{IV.12}{43}{\hspace {0.2 cm}Image docker du batch déployé sur l'artifactory}{figure.4.12}{}}
\@writefile{toc}{\contentsline {section}{\numberline {IV.4}Architecture de Spring Batch}{43}{section.4.4}}
\@writefile{lof}{\contentsline {figure}{\numberline {IV.13}{\ignorespaces \hspace  {0.2 cm}Sch\IeC {\'e}ma des r\IeC {\'e}alisations autour du Job de Spring Batch}}{43}{figure.4.13}}
\newlabel{fig:batch_arch}{{IV.13}{43}{\hspace {0.2 cm}Schéma des réalisations autour du Job de Spring Batch}{figure.4.13}{}}
\bibstyle{plain}
\bibdata{biblio}
\@writefile{toc}{\contentsline {chapter}{\numberline {V}Conclusion g\IeC {\'e}n\IeC {\'e}rale}{45}{chapter.5}}
\@writefile{lof}{\addvspace {10\p@ }}
\@writefile{lot}{\addvspace {10\p@ }}
\bibcite{RUP}{1}
\bibcite{postman}{2}
\bibcite{springbatch}{3}
\bibcite{springcloud}{4}
\bibcite{docker}{5}
\bibcite{sonar}{6}
\bibcite{elastic}{7}
\bibcite{prometheus}{8}
\bibcite{grafana}{9}
