\select@language {french}
\addvspace {10\p@ }
\addvspace {10\p@ }
\contentsline {table}{\numberline {II.1}{\ignorespaces Identification des acteurs}}{16}{table.2.1}
\contentsline {table}{\numberline {II.2}{\ignorespaces Fiche de description du cas d'utilisation Consulter l'historique des ex\IeC {\'e}cutions du job de traitement}}{19}{table.2.2}
\addvspace {10\p@ }
\addvspace {10\p@ }
\addvspace {10\p@ }
