\BOOKMARK [0][-]{chapter.1}{Introduction g\351n\351rale}{}% 1
\BOOKMARK [0][-]{chapter.2}{Contexte du projet}{}% 2
\BOOKMARK [1][-]{section.2.1}{Pr\351sentation de l\220entreprise d\220accueil}{chapter.2}% 3
\BOOKMARK [1][-]{section.2.2}{\311tude pr\351alable}{chapter.2}% 4
\BOOKMARK [2][-]{subsection.2.2.1}{Analyse de l'existant}{section.2.2}% 5
\BOOKMARK [2][-]{subsection.2.2.2}{Critique de l'existant}{section.2.2}% 6
\BOOKMARK [2][-]{subsection.2.2.3}{Solution propos\351e}{section.2.2}% 7
\BOOKMARK [1][-]{section.2.3}{Planning pr\351visionnel}{chapter.2}% 8
\BOOKMARK [1][-]{section.2.4}{Sp\351cification des besoins}{chapter.2}% 9
\BOOKMARK [2][-]{subsection.2.4.1}{Sp\351cification des besoins fonctionnels}{section.2.4}% 10
\BOOKMARK [2][-]{subsection.2.4.2}{Sp\351cification des besoins non fonctionnels}{section.2.4}% 11
\BOOKMARK [1][-]{section.2.5}{Identification des acteurs}{chapter.2}% 12
\BOOKMARK [1][-]{section.2.6}{Diagrammes de cas d\220utilisation}{chapter.2}% 13
\BOOKMARK [2][-]{subsection.2.6.1}{Diagramme de gestion des lancements manuels du job de traitement \340 la demande}{section.2.6}% 14
\BOOKMARK [2][-]{subsection.2.6.2}{Diagramme de supervision des m\351triques de performance et des logs des jobs de traitement}{section.2.6}% 15
\BOOKMARK [1][-]{section.2.7}{Choix du mod\350le de d\351veloppement}{chapter.2}% 16
\BOOKMARK [0][-]{chapter.3}{Conception du syst\350me}{}% 17
\BOOKMARK [1][-]{section.3.1}{Mod\351lisation statique}{chapter.3}% 18
\BOOKMARK [2][-]{subsection.3.1.1}{Diagramme de classes}{section.3.1}% 19
\BOOKMARK [2][-]{subsection.3.1.2}{Architecture mat\351rielle de l\220application}{section.3.1}% 20
\BOOKMARK [1][-]{section.3.2}{Mod\351lisation dynamique}{chapter.3}% 21
\BOOKMARK [2][-]{subsection.3.2.1}{Diagrammes de s\351quences}{section.3.2}% 22
\BOOKMARK [2][-]{subsection.3.2.2}{Diagramme de s\351quence du processus automatique de traitement des demandes de souscription}{section.3.2}% 23
\BOOKMARK [2][-]{subsection.3.2.3}{Diagramme de s\351quence de l'\351tape de traitement des demandes de souscription}{section.3.2}% 24
\BOOKMARK [2][-]{subsection.3.2.4}{Diagramme de s\351quence de l'\351tape de g\351n\351ration des fichiers de configuration pour les demandes de souscription}{section.3.2}% 25
\BOOKMARK [2][-]{subsection.3.2.5}{Diagramme de s\351quence de l'\351tape de d\351ploiement des fichiers de configuration}{section.3.2}% 26
\BOOKMARK [2][-]{subsection.3.2.6}{Diagramme d'activit\351 du processus automatique de traitement}{section.3.2}% 27
\BOOKMARK [0][-]{chapter.4}{R\351alisation du syst\350me}{}% 28
\BOOKMARK [1][-]{section.4.1}{Environnement de d\351veloppement}{chapter.4}% 29
\BOOKMARK [2][-]{subsection.4.1.1}{Environnement logiciel}{section.4.1}% 30
\BOOKMARK [2][-]{subsection.4.1.2}{Technologies utilis\351es}{section.4.1}% 31
\BOOKMARK [1][-]{section.4.2}{R\351alisation du batch de traitement}{chapter.4}% 32
\BOOKMARK [1][-]{section.4.3}{Dockerisation et composants du projet}{chapter.4}% 33
\BOOKMARK [2][-]{subsection.4.3.1}{La dockerisation des composants du projet}{section.4.3}% 34
\BOOKMARK [2][-]{subsection.4.3.2}{Composants du projet}{section.4.3}% 35
\BOOKMARK [2][-]{subsection.4.3.3}{Plateforme Spring Cloud Data Flow }{section.4.3}% 36
\BOOKMARK [2][-]{subsection.4.3.4}{Plateforme de monitoring de log ELK }{section.4.3}% 37
\BOOKMARK [2][-]{subsection.4.3.5}{Plateforme Sonar Cloud }{section.4.3}% 38
\BOOKMARK [2][-]{subsection.4.3.6}{Pipeline d'int\351gration continue}{section.4.3}% 39
\BOOKMARK [1][-]{section.4.4}{Architecture de Spring Batch}{chapter.4}% 40
\BOOKMARK [0][-]{chapter.5}{Conclusion g\351n\351rale}{}% 41
