@startuml
left to right direction
actor "Administrateur" as fc
rectangle "Système de déploiement automatique" {
  usecase "Gestion des lancements manuels du job de traitement à la demande." as UC1
  usecase "Lancer le job de traitement" as UC2
  usecase "Arrêter le job de traitement" as UC3
  usecase "Vérifier le status d'exécution du job" as UC4
  usecase "Consulter l'historique des exécutions du job de traitement" as UC5
}
fc --> UC1
UC2 .> UC1 : extends
UC3 .> UC1 : extends
UC4 .> UC1 : extends
UC5 .> UC1 : extends







@enduml
